5
10
['17', '42', '23', '37', '28']
['14', '7', '2', '11', '14', '48']
['47', '9', '25', '2', '46']
['25', '34', '33', '31', '12']
['12', '31', '2', '31', '49']
['10', '47', '37', '39', '16']
['20', '22', '8', '27', '20']
['5', '26', '22', '6', '35', '11']
['48', '1', '23', '48']
['0', '11', '12', '41', '28']
['45', '0', '46', '42', '38', '22']
['49', '36', '29', '19', '48']
['24', '7', '32', '20', '24']
['17', '12', '27', '28', '49']
['1', '39', '0', '23', '48']
['36', '37', '8', '44', '8']
['2', '47', '34', '10', '13']
['41', '27', '8', '14', '18']
['38', '37', '28', '37', '46']
['9', '17', '29', '39', '47']
